<svg xmlns="http://www.w3.org/2000/svg" width="10" height="10">
    <defs>
        <linearGradient id="a" x1="0%" y1="0%" y2="0%">
            <stop offset="0%" stop-color="#80D8FF"/>
            <stop offset="100%" stop-color="#E584FC"/>
        </linearGradient>
    </defs>
    <path fill="#FD75BE" fill-rule="evenodd" d="M3.329 8.368l.53.481.004.004.605.539a.422.422 0 0 0 .565 0l.605-.539a.014.014 0 0 1 .003-.004C6.839 7.757 7.738 6.92 8.387 6.105 9.146 5.152 9.5 4.29 9.5 3.393 9.5 1.771 8.267.5 6.694.5c-.707 0-1.406.275-1.944.751A2.962 2.962 0 0 0 2.806.5C1.233.5 0 1.771 0 3.393c0 1.962 1.324 3.161 3.329 4.975zm-.307-4.259h1.152V2.922h1.152v1.187h1.152v1.188H5.326v1.188H4.174V5.297H3.022V4.109z"/>
    <path fill="url(#a)" d="M3.329 8.368l.53.481.004.004.605.539a.422.422 0 0 0 .565 0l.605-.539a.014.014 0 0 1 .003-.004C6.839 7.757 7.738 6.92 8.387 6.105 9.146 5.152 9.5 4.29 9.5 3.393 9.5 1.771 8.267.5 6.694.5c-.707 0-1.406.275-1.944.751A2.962 2.962 0 0 0 2.806.5C1.233.5 0 1.771 0 3.393c0 1.962 1.324 3.161 3.329 4.975zm-.307-4.259h1.152V2.922h1.152v1.187h1.152v1.188H5.326v1.188H4.174V5.297H3.022V4.109z"/>
</svg>
