{
    "imgUrl": {
        "head": {
            "def": "http://de1-cdn.allstar-interactive.com/host-game-assets/profile/LUNA/LUNA-HEAD.png"
        },
        "profile": {
            "def":"http://de1-cdn.allstar-interactive.com/host-game-assets/profile/LUNA/LUNA-HEAD.png"
        }
    },
    "content": {
        "zh-cn": {
            "name": "Luna",
            "detail": [
                { "icon": "icon-heart-full", "title": "兴趣：", "txt": "跳舞/ 唱歌/ 打游戏" },
                { "icon": "icon-heart-full", "title": "星座：", "txt": "摩羯座" },
                { "icon": "icon-heart-full", "title": "最爱：", "txt": "玩吃鸡/ 听音乐" }
            ],
            "talks": "我想你一定很忙，所以只要看前三个字就好。"
        },
        "en-us": {
            "name": "Luna",
            "detail": [
                { "icon": "icon-heart-full", "title": "Interest: ", "txt": "Dancing / Singing / Play video games" },
                { "icon": "icon-heart-full", "title": "Constellation: ", "txt": "Capricornus" },
                { "icon": "icon-heart-full", "title": "Favorite: ", "txt": "Play video game / Listening to music" }
            ],
            "talks": "Maybe I'm too late to be your first, but right now, I'm preparing myself to be your last."
        }
    }
}
